[{"line":1,"elements":[{"line":3,"name":"Test a sample GET API","description":"","id":"test-a-sample-get-api","type":"scenario","keyword":"Scenario","steps":[{"name":"url  'https:\/\/reqres.in\/api\/users?page=2'","result":{"duration":1598300,"status":"passed"},"match":{"location":"karate","arguments":[]},"keyword":"Given","line":4,"doc_string":{"content_type":"","value":"14:21:57.110 skipping bootstrap configuration: could not find or read file: classpath:karate-config.js","line":4}},{"name":"method GET","result":{"duration":913190600,"status":"passed"},"match":{"location":"karate","arguments":[]},"keyword":"When","line":5,"doc_string":{"content_type":"","value":"14:21:57.564 request:\n1 > GET https:\/\/reqres.in\/api\/users?page=2\n1 > Accept-Encoding: gzip,deflate\n1 > Connection: Keep-Alive\n1 > Host: reqres.in\n1 > User-Agent: Apache-HttpClient\/4.5.12 (Java\/1.8.0_131)\n\n14:21:58.012 response time in milliseconds: 447,52\n1 < 200\n1 < Age: 2497\n1 < CF-Cache-Status: HIT\n1 < CF-RAY: 6da739499816370a-MIA\n1 < Cache-Control: max-age=14400\n1 < Connection: keep-alive\n1 < Content-Type: application\/json; charset=utf-8\n1 < Date: Tue, 08 Feb 2022 19:21:55 GMT\n1 < Expect-CT: max-age=604800, report-uri=\"https:\/\/report-uri.cloudflare.com\/cdn-cgi\/beacon\/expect-ct\"\n1 < NEL: {\"success_fraction\":0,\"report_to\":\"cf-nel\",\"max_age\":604800}\n1 < Report-To: {\"endpoints\":[{\"url\":\"https:\\\/\\\/a.nel.cloudflare.com\\\/report\\\/v3?s=B5Ap5oSqDf%2B4U6QV7STs8sgEX5li7wDZ6jodn8DeT4m23wYXIy%2FaHU91b6cKHZIGLu9hI7XSX9jvoVhSbmFMR%2BUdPUupJj%2BoQhx4xHYB3vcrbvbBdkqS8XyuPRM%3D\"}],\"group\":\"cf-nel\",\"max_age\":604800}\n1 < Server: cloudflare\n1 < Transfer-Encoding: chunked\n1 < Vary: Accept-Encoding\n1 < access-control-allow-origin: *\n1 < alt-svc: h3=\":443\"; ma=86400, h3-29=\":443\"; ma=86400\n1 < etag: W\/\"406-ut0vzoCuidvyMf8arZpMpJ6ZRDw\"\n1 < via: 1.1 vegur\n1 < x-powered-by: Express\n{\"page\":2,\"per_page\":6,\"total\":12,\"total_pages\":2,\"data\":[{\"id\":7,\"email\":\"michael.lawson@reqres.in\",\"first_name\":\"Michael\",\"last_name\":\"Lawson\",\"avatar\":\"https:\/\/reqres.in\/img\/faces\/7-image.jpg\"},{\"id\":8,\"email\":\"lindsay.ferguson@reqres.in\",\"first_name\":\"Lindsay\",\"last_name\":\"Ferguson\",\"avatar\":\"https:\/\/reqres.in\/img\/faces\/8-image.jpg\"},{\"id\":9,\"email\":\"tobias.funke@reqres.in\",\"first_name\":\"Tobias\",\"last_name\":\"Funke\",\"avatar\":\"https:\/\/reqres.in\/img\/faces\/9-image.jpg\"},{\"id\":10,\"email\":\"byron.fields@reqres.in\",\"first_name\":\"Byron\",\"last_name\":\"Fields\",\"avatar\":\"https:\/\/reqres.in\/img\/faces\/10-image.jpg\"},{\"id\":11,\"email\":\"george.edwards@reqres.in\",\"first_name\":\"George\",\"last_name\":\"Edwards\",\"avatar\":\"https:\/\/reqres.in\/img\/faces\/11-image.jpg\"},{\"id\":12,\"email\":\"rachel.howell@reqres.in\",\"first_name\":\"Rachel\",\"last_name\":\"Howell\",\"avatar\":\"https:\/\/reqres.in\/img\/faces\/12-image.jpg\"}],\"support\":{\"url\":\"https:\/\/reqres.in\/#support-heading\",\"text\":\"To keep ReqRes free, contributions towards server costs are appreciated!\"}}","line":5}},{"name":"status 200","result":{"duration":10900,"status":"passed"},"match":{"location":"karate","arguments":[]},"keyword":"Then","line":6}]}],"name":"src\/test\/java\/example\/post.feature","description":"Login and register Tests on reqres.in","id":"login-and-register-tests-on-reqres.in","keyword":"Feature","uri":"src\/test\/java\/example\/post.feature"}]